Starting with Data
…
You can see that read_csv reports a column specification. This shows the variable names that were read in and the type of data that each column was interpreted as. Among other things, read_csv() will store the data as a tibble and read.csv() (which is the built-in function in base R) will store the data as a data frame.

Ecoli_citrate

## # A tibble: 30 x 7
##    sample   generation clade   strain cit     run       genome_size
##    <chr>         <dbl> <chr>   <chr>  <chr>   <chr>           <dbl>
##  1 REL606            0 <NA>    REL606 unknown <NA>             4.62
##  2 REL1166A       2000 unknown REL606 unknown SRR098028        4.63
##  3 ZDB409         5000 unknown REL606 unknown SRR098281        4.6 
##  4 ZDB429        10000 UC      REL606 unknown SRR098282        4.59
##  5 ZDB446        15000 UC      REL606 unknown SRR098283        4.66
##  6 ZDB458        20000 (C1,C2) REL606 unknown SRR098284        4.63
##  7 ZDB464*       20000 (C1,C2) REL606 unknown SRR098285        4.62
##  8 ZDB467        20000 (C1,C2) REL606 unknown SRR098286        4.61
##  9 ZDB477        25000 C1      REL606 unknown SRR098287        4.65
## 10 ZDB483        25000 C3      REL606 unknown SRR098288        4.59
## #  with 20 more rows
…
##     sample generation   clade strain     cit       run genome_size
## 1   REL606          0    <NA> REL606 unknown                  4.62
## 2 REL1166A       2000 unknown REL606 unknown SRR098028        4.63
## 3   ZDB409       5000 unknown REL606 unknown SRR098281        4.60
## 4   ZDB429      10000      UC REL606 unknown SRR098282        4.59
## 5   ZDB446      15000      UC REL606 unknown SRR098283        4.66
## 6   ZDB458      20000 (C1,C2) REL606 unknown SRR098284        4.63

Notice that Ive used head, which gives me only the first 6 rows of the data sheet. What happens if you type Ecoli_citrate2 into the console? Note that this is different than when we read in Ecoli_citrate2 as a tibble. There will be some applications in the future where we will need to use data frames instead of tibbles. We can easily convert between them using as.data.frame or as_tibble:

Ecoli_citrate2 <- as_tibble(Ecoli_citrate2)
Ecoli_citrate2

## # A tibble: 30 x 7
##    sample   generation clade   strain cit     run       genome_size
##    <fct>         <int> <fct>   <fct>  <fct>   <fct>           <dbl>
##  1 REL606            0 <NA>    REL606 unknown ""               4.62
##  2 REL1166A       2000 unknown REL606 unknown SRR098028        4.63
##  3 ZDB409         5000 unknown REL606 unknown SRR098281        4.6 
##  4 ZDB429        10000 UC      REL606 unknown SRR098282        4.59
##  5 ZDB446        15000 UC      REL606 unknown SRR098283        4.66
##  6 ZDB458        20000 (C1,C2) REL606 unknown SRR098284        4.63
##  7 ZDB464*       20000 (C1,C2) REL606 unknown SRR098285        4.62
##  8 ZDB467        20000 (C1,C2) REL606 unknown SRR098286        4.61
##  9 ZDB477        25000 C1      REL606 unknown SRR098287        4.65
## 10 ZDB483        25000 C3      REL606 unknown SRR098288        4.59
## #  with 20 more rows
…
If we leave an index blank, this acts as a wildcard and matches all of the rows or columns:

Ecoli_citrate[22, ]

## # A tibble: 1 x 7
##   sample generation clade strain cit   run       genome_size
##   <chr>       <dbl> <chr> <chr>  <chr> <chr>           <dbl>
## 1 CZB154      33000 Cit+  REL606 plus  SRR098026        4.76

Ecoli_citrate[, 1:3]

## # A tibble: 30 x 3
##    sample   generation clade  
##    <chr>         <dbl> <chr>  
##  1 REL606            0 <NA>   
##  2 REL1166A       2000 unknown
##  3 ZDB409         5000 unknown
##  4 ZDB429        10000 UC     
##  5 ZDB446        15000 UC     
##  6 ZDB458        20000 (C1,C2)
##  7 ZDB464*       20000 (C1,C2)
##  8 ZDB467        20000 (C1,C2)
##  9 ZDB477        25000 C1     
## 10 ZDB483        25000 C3     
## #  with 20 more rows
…
#grab rows 1 through 3
slice(Ecoli_citrate, 1:3)

## # A tibble: 3 x 7
##   sample   generation clade   strain cit     run       genome_size
##   <chr>         <dbl> <chr>   <chr>  <chr>   <chr>           <dbl>
## 1 REL606            0 <NA>    REL606 unknown <NA>             4.62
## 2 REL1166A       2000 unknown REL606 unknown SRR098028        4.63
## 3 ZDB409         5000 unknown REL606 unknown SRR098281        4.6

You can also refer to columns by name with quotation marks.

Ecoli_citrate[, "sample"]

## # A tibble: 30 x 1
##    sample  
##    <chr>   
##  1 REL606  
##  2 REL1166A
##  3 ZDB409  
##  4 ZDB429  
##  5 ZDB446  
##  6 ZDB458  
##  7 ZDB464* 
##  8 ZDB467  
##  9 ZDB477  
## 10 ZDB483  
## #  with 20 more rows

Note that subsetting a tibble returns another tibble; in contrast, using $ to extract a variable returns a vector:

Ecoli_citrate$cit

##  [1] "unknown" "unknown" "unknown" "unknown" "unknown" "unknown" "unknown"
##  [8] "unknown" "unknown" "unknown" "unknown" "unknown" "minus"   "minus"  
## [15] "plus"    "minus"   "plus"    "minus"   "plus"    "minus"   "plus"   
## [22] "plus"    "minus"   "plus"    "plus"    "minus"   "plus"    "minus"  
## [29] "plus"    "minus"

Ecoli_citrate[, "cit"]

## # A tibble: 30 x 1
##    cit    
##    <chr>  
##  1 unknown
##  2 unknown
##  3 unknown
##  4 unknown
##  5 unknown
##  6 unknown
##  7 unknown
##  8 unknown
##  9 unknown
## 10 unknown
## #  with 20 more rows

We can use arrange() to re-order a data frame based on the values of a columns. It will take also multiple columns and can be in descending or ascending order.

#descending
arrange(Ecoli_citrate, genome_size)

## # A tibble: 30 x 7
##    sample generation clade   strain cit     run       genome_size
##    <chr>       <dbl> <chr>   <chr>  <chr>   <chr>           <dbl>
##  1 ZDB429      10000 UC      REL606 unknown SRR098282        4.59
##  2 ZDB483      25000 C3      REL606 unknown SRR098288        4.59
##  3 CZB199      33000 C1      REL606 minus   SRR098027        4.59
##  4 ZDB409       5000 unknown REL606 unknown SRR098281        4.6 
##  5 ZDB83       34000 Cit+    REL606 minus   SRR098034        4.6 
##  6 ZDB467      20000 (C1,C2) REL606 unknown SRR098286        4.61
##  7 ZDB16       30000 C1      REL606 unknown SRR098031        4.61
##  8 ZDB30*      32000 C3      REL606 minus   SRR098032        4.61
##  9 ZDB99       36000 C1      REL606 minus   SRR098037        4.61
## 10 REL606          0 <NA>    REL606 unknown <NA>             4.62
## #  with 20 more rows

#multiple columns: smallest genome size and largest generation
arrange(Ecoli_citrate, genome_size, desc(generation))

## # A tibble: 30 x 7
##    sample   generation clade   strain cit     run       genome_size
##    <chr>         <dbl> <chr>   <chr>  <chr>   <chr>           <dbl>
##  1 CZB199        33000 C1      REL606 minus   SRR098027        4.59
##  2 ZDB483        25000 C3      REL606 unknown SRR098288        4.59
##  3 ZDB429        10000 UC      REL606 unknown SRR098282        4.59
##  4 ZDB83         34000 Cit+    REL606 minus   SRR098034        4.6 
##  5 ZDB409         5000 unknown REL606 unknown SRR098281        4.6 
##  6 ZDB99         36000 C1      REL606 minus   SRR098037        4.61
##  7 ZDB30*        32000 C3      REL606 minus   SRR098032        4.61
##  8 ZDB16         30000 C1      REL606 unknown SRR098031        4.61
##  9 ZDB467        20000 (C1,C2) REL606 unknown SRR098286        4.61
## 10 REL10988      40000 C2      REL606 minus   SRR098030        4.62
## #  with 20 more rows
…
