Loading Data
…
An Excel .xlsx file. This format is based on Microsofts proprietary Excel software. As opposed to a bare-bones .csv files, .xlsx Excel files sometimes contain a lot of meta-data, or put more simply, data about the data. Some examples of spreadsheet meta-data include the use of bold and italic fonts, colored cells, different column widths, and formula macros.

A Google Sheets file, which is a cloud or online-based way to work with a spreadsheet. Google Sheets allows you to download your data in both comma separated values .csv and Excel .xlsx formats however: go to the Google Sheets menu bar -> File -> Download as -> Select Microsoft Excel or Comma-separated values.

Here well cover two methods for importing .csv and .xlsx spreadsheet data: using the console and using RStudios graphical user interface (GUI).

Using the console

First, lets import a Comma Separated Values .csv file of data directly off the internet. The .csv file dem_score.csv accessible at https://moderndive.com/data/dem_score.csv contains ratings of the level of democracy in different countries spanning 1952 to 1992. Lets use the read_csv() function from the readr package (loaded automatically with library(tidyverse)) to read it off the web, import it into R, and save it in a data frame called dem_score

library(tidyverse)
dem_score_tbl <- read_csv("https://moderndive.com/data/dem_score.csv", col_type = cols())
dem_score_tbl

## # A tibble: 96 x 10
##    country   `1952` `1957` `1962` `1967` `1972` `1977` `1982` `1987` `1992`
##    <chr>      <dbl>  <dbl>  <dbl>  <dbl>  <dbl>  <dbl>  <dbl>  <dbl>  <dbl>
##  1 Albania       -9     -9     -9     -9     -9     -9     -9     -9      5
##  2 Argentina     -9     -1     -1     -9     -9     -9     -8      8      7
##  3 Armenia       -9     -7     -7     -7     -7     -7     -7     -7      7
##  4 Australia     10     10     10     10     10     10     10     10     10
##  5 Austria       10     10     10     10     10     10     10     10     10
##  6 Azerbaij     -9     -7     -7     -7     -7     -7     -7     -7      1
##  7 Belarus       -9     -7     -7     -7     -7     -7     -7     -7      7
##  8 Belgium       10     10     10     10     10     10     10     10     10
##  9 Bhutan       -10    -10    -10    -10    -10    -10    -10    -10    -10
## 10 Bolivia       -4     -3     -3     -4     -7     -7      8      9      9
## #  with 86 more rows
…
